{
  "filetype": "text/*",
  "filepath": "null",
  "latitude": "10.6255484",
  "aDate": "Fri Nov 24 02:25:17 AST 2017",
  "text": "Test text only",
  "fullname": "Kyle E. deFreitas",
  "category": "",
  "userid": "1",
  "countryid": "1",
  "longitude": "-61.42078"
}