{
	"userid": 1,
	"groupid": 1,
	"messagecontent": "Testing Alerts",
	"deviceTimestamp": "2017-06-15 11:36:11",
	"latitude": "10.253439",
	"longitude": "-61.462677",
	"isPublic": true,
	"likes": 5,
	"dislikes": 2,
	"messageDescription": "A Simple Test For Alert Messages",
	"isVerified": false
}